<svg xmlns="http://www.w3.org/2000/svg">
  <symbol id="check-square" viewBox="0 0 24 24">
    <g fill="none" stroke="#737677" stroke-width="2" stroke-linecap="round" stroke-linejoin="round">
      <polyline points="9 11 12 14 23 3"/>
      <path d="M21 12v7a2 2 0 0 1-2 2H5a2 2 0 0 1-2-2V5a2 2 0 0 1 2-2h11"/>
    </g>
  </symbol>

  <symbol id="arrow-right" viewBox="0 0 24 24">
    <g fill="none" stroke="#666" stroke-width="2" stroke-linecap="round" stroke-linejoin="round">
      <line x1="4" y1="12" x2="20" y2="12"></line>
      <polyline points="14 6 20 12 14 18"></polyline>
    </g>
  </symbol>
</svg>
